\relax 
\catcode `"\active 
\citation{Guedes}
\citation{Tanenbaum}
\select@language{portuges}
\@writefile{toc}{\select@language{portuges}}
\@writefile{lof}{\select@language{portuges}}
\@writefile{lot}{\select@language{portuges}}
\@writefile{toc}{\contentsline {section}{\numberline {1}Introdu\IeC {\c c}\IeC {\~a}o}{1}}
\newlabel{sec:introducao}{{1}{1}}
\citation{Guedes}
\citation{Fraga}
\citation{Resende}
\@writefile{toc}{\contentsline {section}{\numberline {2}Sistemas Distribu\IeC {\'\i }dos}{2}}
\newlabel{sec:trabrel}{{2}{2}}
\@writefile{toc}{\contentsline {section}{\numberline {3}Quest\IeC {\~o}es de Projeto de Sistemas Distribu\IeC {\'\i }dos}{2}}
\newlabel{sec:proposta}{{3}{2}}
\@writefile{toc}{\contentsline {subsection}{\numberline {3.1}Flexibilidade em Sistemas Distribu\IeC {\'\i }dos}{2}}
\@writefile{lof}{\contentsline {figure}{\numberline {1}{\ignorespaces Kernel Monol\IeC {\'\i }tico}}{3}}
\newlabel{1}{{1}{3}}
\@writefile{lof}{\contentsline {figure}{\numberline {2}{\ignorespaces MicroKernel}}{3}}
\newlabel{2}{{2}{3}}
\@writefile{toc}{\contentsline {section}{\numberline {4}Implementa\IeC {\c c}\IeC {\~a}o de Aplica\IeC {\c c}\IeC {\~a}o Distribu\IeC {\'\i }da}{4}}
\newlabel{sec:implementacao}{{4}{4}}
\@writefile{lol}{\contentsline {lstlisting}{ReceberMSGInterface.java}{4}}
\@writefile{lol}{\contentsline {lstlisting}{Servidor.java}{4}}
\bibstyle{sbc}
\bibdata{biblio/bibliografia}
\bibcite{Fraga}{Fraga 1997}
\bibcite{Guedes}{Guedes 2009}
\bibcite{Resende}{Resende 2014}
\bibcite{Tanenbaum}{Tanenbaum and Steen 2007}
\@writefile{lol}{\contentsline {lstlisting}{Cliente.java}{5}}
\@writefile{toc}{\contentsline {section}{\numberline {5}Conclus\IeC {\~a}o e An\IeC {\'a}lise final}{5}}
\newlabel{sec:conclusao}{{5}{5}}
